{
  "type": "service_account",
  "project_id": "sendbyshare-222308",
  "private_key_id": "ee46f1ea5bd72a486b1624a9aacbadc3272a3b1e",
  "private_key": "-----BEGIN PRIVATE KEY-----\nMIIEvgIBADANBgkqhkiG9w0BAQEFAASCBKgwggSkAgEAAoIBAQCh7E1EJoPr7K8H\nZ/zkLG1Q2k81ibhn6qQ9THciwpku6LMBSxMLmilSDNY5sxMoyaokSxmjwakpOfWA\nh5qAAP93CprQXfaz8/K+e0eotOsOkICqr73XFzFO8kmJfv/XFnrzBOpvtX5M7YA5\nY7VjYf7c6HFa/b4uU4JodfvZuzWb4U3r8r/GNhsK/MbbB9oB7K8OgnikvCzblNDo\nt4/hZnIicRod3RIDWaF5uUFbovcss1YD/y1hd1AtkeNXeDhLGz8UQvCkaJ1UMj6d\nqg/ESOP1PK7MDeDk3WoUvCpW+n/9kb+gMflnnnYDe7iAUZBB3nwRj76d0EwJ8L/B\nZxgKO2iBAgMBAAECggEAAQUQuILolkoLkSefwV0hRB7X3F21blwdNDCg2HRyzAeV\npwauxEYwh+6CQ+NDleBtRKS/cNdVpieSCwDvoWpAMaL8th69YMVCzF3Q5fhbuaAB\n23FXZ/0ip51hhq7o1BU1aYXopxL0zG27fsEIwas6lHAXVKwf8EFA40EI+MZT0FtA\nlAfC52zRo4CpU0c23PIFEdaqaIh55/+go6bYxNezmoyDf8FM0ut8HLTTfFiqxxL4\nmXqS4YPKWgTXbdtSdpOtKYPIfRJ6NHYRc+QJePNEokNlEIvMeWoUNevqW79OXD+T\nqFwYbqJeNIR9YgkiLVMozCCG4ncVbAK57v7HqFs05QKBgQDecwzLu4gvwaNAwsIv\nan4uiyFRYsczeCFb4/I7Lo53hQXbDPFaEQp4q2m17MeDFbUxUF+hShb9XilAnekC\nz6jDCLUsQGgIlKFh2Olnfex7d7OpTzn/99foN7oL+0tVUuw2Tgr3UyBsdfQNzcow\nGplkaPVeX9wmFtgjUrbnd8bArQKBgQC6WEfV2E1vCoUzpEO309JZhszD5cTxprmc\n2axqcbzgkKGkTpprXeH6op9vamu8MnBQJhpwl1j2q1DJ/IsiUVcL0egCMXmCVaWx\niHEK5jssdrHoh00e+MXbLRhF87GUsTKyc1UwdHEcsihePPwoNBYIwCAu8Eoewik8\nn903dxg9pQKBgG+WEOYmBVPHc8gpqlU0u2VHn4f+3+Qer8UznDA503d7AAv4+xzu\nDW2ottdulkpYWlMJeV8kFlI0qMbkL52cY5CqTo+LI2Sigi3eLH8guL7atgIJXxPa\n1LCFO8uE3C5J8XnwPioAxfQCW1GNWI422Zl32RXlSj7FGNjnRh7og4flAoGBAKzG\nBXTEpKb7/hyvhQoAH9xaG6jWdRAJIbfIKxBWfGVKNFT/fDVoSon0FhdbeKB5s6Dc\nc09JRHcQyEs/GFGtUSPob1D5RkwN1R8R/p24ccz8EGAkcuDwj6Jz4TmahV/0G6lR\nPf87N1T/6mXV7YXpJTTfzfc3W8HBDDLlllpC1frxAoGBAJiu0K0XZXaydDStrHnE\njygkL/BhWC0sBk9cKkIwhuKar7KEHXuYOThtoab/gZElNLOiA3qA44knwe/M3Z3x\nwpBgrwmVwvyvZH6q5cC44DkMuMUs12JEL/oNbgj/+JAxSfyQqrVAdgnYp5DNZqfD\nUDm7l4mbXLNCiOKY9wzdpJyX\n-----END PRIVATE KEY-----\n",
  "client_email": "firebase-adminsdk-zrav6@sendbyshare-222308.iam.gserviceaccount.com",
  "client_id": "110463921688834720048",
  "auth_uri": "https://accounts.google.com/o/oauth2/auth",
  "token_uri": "https://oauth2.googleapis.com/token",
  "auth_provider_x509_cert_url": "https://www.googleapis.com/oauth2/v1/certs",
  "client_x509_cert_url": "https://www.googleapis.com/robot/v1/metadata/x509/firebase-adminsdk-zrav6%40sendbyshare-222308.iam.gserviceaccount.com"
}
